%YAML 1.1
%TAG !u! tag:unity3d.com,2011:
--- !u!74 &7400000
AnimationClip:
  m_ObjectHideFlags: 0
  m_CorrespondingSourceObject: {fileID: 0}
  m_PrefabInstance: {fileID: 0}
  m_PrefabAsset: {fileID: 0}
  m_Name: Idle
  serializedVersion: 6
  m_Legacy: 0
  m_Compressed: 0
  m_UseHighQualityCurve: 1
  m_RotationCurves: []
  m_CompressedRotationCurves: []
  m_EulerCurves: []
  m_PositionCurves: []
  m_ScaleCurves: []
  m_FloatCurves: []
  m_PPtrCurves:
  - curve:
    - time: 0
      value: {fileID: 21300000, guid: ffa80ac322d38fc49b4ac5a001f47dcf, type: 3}
    - time: 0.11666667
      value: {fileID: 21300000, guid: a19f42f9a8af9ab4bb82fa3991d44470, type: 3}
    - time: 0.23333333
      value: {fileID: 21300000, guid: a2ccc2b33aa63af4781c4aa075e981bd, type: 3}
    - time: 0.35
      value: {fileID: 21300000, guid: 3f7c200d7a9985d45a79fb2bf4531d95, type: 3}
    - time: 0.75
      value: {fileID: 21300000, guid: 3f7c200d7a9985d45a79fb2bf4531d95, type: 3}
    attribute: m_Sprite
    path: 
    classID: 114
    script: {fileID: -765806418, guid: f70555f144d8491a825f0804e09c671c, type: 3}
  m_SampleRate: 60
  m_WrapMode: 0
  m_Bounds:
    m_Center: {x: 0, y: 0, z: 0}
    m_Extent: {x: 0, y: 0, z: 0}
  m_ClipBindingConstant:
    genericBindings:
    - serializedVersion: 2
      path: 0
      attribute: 2015549526
      script: {fileID: -765806418, guid: f70555f144d8491a825f0804e09c671c, type: 3}
      typeID: 114
      customType: 0
      isPPtrCurve: 1
    pptrCurveMapping:
    - {fileID: 21300000, guid: ffa80ac322d38fc49b4ac5a001f47dcf, type: 3}
    - {fileID: 21300000, guid: a19f42f9a8af9ab4bb82fa3991d44470, type: 3}
    - {fileID: 21300000, guid: a2ccc2b33aa63af4781c4aa075e981bd, type: 3}
    - {fileID: 21300000, guid: 3f7c200d7a9985d45a79fb2bf4531d95, type: 3}
    - {fileID: 21300000, guid: 3f7c200d7a9985d45a79fb2bf4531d95, type: 3}
  m_AnimationClipSettings:
    serializedVersion: 2
    m_AdditiveReferencePoseClip: {fileID: 0}
    m_AdditiveReferencePoseTime: 0
    m_StartTime: 0
    m_StopTime: 0.76666665
    m_OrientationOffsetY: 0
    m_Level: 0
    m_CycleOffset: 0
    m_HasAdditiveReferencePose: 0
    m_LoopTime: 1
    m_LoopBlend: 0
    m_LoopBlendOrientation: 0
    m_LoopBlendPositionY: 0
    m_LoopBlendPositionXZ: 0
    m_KeepOriginalOrientation: 0
    m_KeepOriginalPositionY: 1
    m_KeepOriginalPositionXZ: 0
    m_HeightFromFeet: 0
    m_Mirror: 0
  m_EditorCurves: []
  m_EulerEditorCurves: []
  m_HasGenericRootTransform: 0
  m_HasMotionFloatCurves: 0
  m_Events: []
