%YAML 1.1
%TAG !u! tag:unity3d.com,2011:
--- !u!74 &7400000
AnimationClip:
  m_ObjectHideFlags: 0
  m_CorrespondingSourceObject: {fileID: 0}
  m_PrefabInstance: {fileID: 0}
  m_PrefabAsset: {fileID: 0}
  m_Name: alertloop
  serializedVersion: 6
  m_Legacy: 0
  m_Compressed: 0
  m_UseHighQualityCurve: 1
  m_RotationCurves: []
  m_CompressedRotationCurves: []
  m_EulerCurves: []
  m_PositionCurves: []
  m_ScaleCurves: []
  m_FloatCurves:
  - curve:
      serializedVersion: 2
      m_Curve:
      - serializedVersion: 3
        time: 0
        value: 1110
        inSlope: -21.071499
        outSlope: -546.22894
        tangentMode: 1
        weightedMode: 0
        inWeight: 1
        outWeight: 1
      - serializedVersion: 3
        time: 0.9166667
        value: 600
        inSlope: -550.7437
        outSlope: 4404.5923
        tangentMode: 1
        weightedMode: 0
        inWeight: 1
        outWeight: 1
      - serializedVersion: 3
        time: 1.0333333
        value: 1110
        inSlope: 4251.1177
        outSlope: -546.90283
        tangentMode: 1
        weightedMode: 0
        inWeight: 1
        outWeight: 1
      m_PreInfinity: 2
      m_PostInfinity: 2
      m_RotationOrder: 4
    attribute: m_AnchoredPosition.x
    path: Image/Text
    classID: 224
    script: {fileID: 0}
  - curve:
      serializedVersion: 2
      m_Curve:
      - serializedVersion: 3
        time: 0
        value: 0.1
        inSlope: Infinity
        outSlope: Infinity
        tangentMode: 0
        weightedMode: 0
        inWeight: 0
        outWeight: 0.33333334
      - serializedVersion: 3
        time: 0.11666667
        value: 0.3
        inSlope: Infinity
        outSlope: Infinity
        tangentMode: 0
        weightedMode: 0
        inWeight: 0
        outWeight: 0.33333334
      - serializedVersion: 3
        time: 0.23333333
        value: 0.45
        inSlope: Infinity
        outSlope: Infinity
        tangentMode: 0
        weightedMode: 0
        inWeight: 0
        outWeight: 0.33333334
      - serializedVersion: 3
        time: 0.35
        value: 0.6
        inSlope: Infinity
        outSlope: Infinity
        tangentMode: 0
        weightedMode: 0
        inWeight: 0
        outWeight: 0.33333334
      - serializedVersion: 3
        time: 0.46666667
        value: 0.7
        inSlope: Infinity
        outSlope: Infinity
        tangentMode: 0
        weightedMode: 0
        inWeight: 0
        outWeight: 0.33333334
      - serializedVersion: 3
        time: 0.56666666
        value: 0.6
        inSlope: Infinity
        outSlope: Infinity
        tangentMode: 0
        weightedMode: 0
        inWeight: 0.33333334
        outWeight: 0
      - serializedVersion: 3
        time: 0.68333334
        value: 0.45
        inSlope: Infinity
        outSlope: Infinity
        tangentMode: 0
        weightedMode: 0
        inWeight: 0.33333334
        outWeight: 0
      - serializedVersion: 3
        time: 0.8
        value: 0.2
        inSlope: Infinity
        outSlope: Infinity
        tangentMode: 0
        weightedMode: 0
        inWeight: 0.33333334
        outWeight: 0
      - serializedVersion: 3
        time: 0.9166667
        value: 0
        inSlope: Infinity
        outSlope: Infinity
        tangentMode: 0
        weightedMode: 0
        inWeight: 0
        outWeight: 0.33333334
      - serializedVersion: 3
        time: 1.0333333
        value: 0.1
        inSlope: Infinity
        outSlope: Infinity
        tangentMode: 0
        weightedMode: 0
        inWeight: 0
        outWeight: 0.33333334
      m_PreInfinity: 2
      m_PostInfinity: 2
      m_RotationOrder: 4
    attribute: m_Color.a
    path: Image/Text
    classID: 114
    script: {fileID: 708705254, guid: f70555f144d8491a825f0804e09c671c, type: 3}
  - curve:
      serializedVersion: 2
      m_Curve:
      - serializedVersion: 3
        time: 0
        value: 1
        inSlope: 0
        outSlope: 0
        tangentMode: 136
        weightedMode: 0
        inWeight: 0
        outWeight: 0
      m_PreInfinity: 2
      m_PostInfinity: 2
      m_RotationOrder: 4
    attribute: m_Color.a
    path: 
    classID: 114
    script: {fileID: -765806418, guid: f70555f144d8491a825f0804e09c671c, type: 3}
  m_PPtrCurves:
  - curve:
    - time: 0
      value: {fileID: 21300000, guid: 69c15a52195f6264b92a7605f8d37b63, type: 3}
    - time: 0.11666667
      value: {fileID: 21300000, guid: 2504010dc98a4a54fb79289d89fc2597, type: 3}
    - time: 0.23333333
      value: {fileID: 21300000, guid: 30aa91419f35584488d22b541a5d6ead, type: 3}
    - time: 0.35
      value: {fileID: 21300000, guid: 6cc17981c8d95f545b4accbf23e182cd, type: 3}
    - time: 0.46666667
      value: {fileID: 21300000, guid: 311bb3f4c0adcda4686d4e70ea7a3f6e, type: 3}
    - time: 0.56666666
      value: {fileID: 21300000, guid: fcbf6190f9ba7944ab6389b1bb2b90a7, type: 3}
    - time: 0.68333334
      value: {fileID: 21300000, guid: b5025b233c4b46f4a93c6a1e6a5a6fe0, type: 3}
    - time: 0.8
      value: {fileID: 21300000, guid: 9229fa5f75087234e9fb3c6092236aea, type: 3}
    - time: 0.9166667
      value: {fileID: 21300000, guid: 231914e87ad07e241a1aa7b82c518758, type: 3}
    - time: 1.0333333
      value: {fileID: 21300000, guid: 69c15a52195f6264b92a7605f8d37b63, type: 3}
    attribute: m_Sprite
    path: 
    classID: 114
    script: {fileID: -765806418, guid: f70555f144d8491a825f0804e09c671c, type: 3}
  m_SampleRate: 60
  m_WrapMode: 0
  m_Bounds:
    m_Center: {x: 0, y: 0, z: 0}
    m_Extent: {x: 0, y: 0, z: 0}
  m_ClipBindingConstant:
    genericBindings:
    - serializedVersion: 2
      path: 3742105976
      attribute: 1460864421
      script: {fileID: 0}
      typeID: 224
      customType: 28
      isPPtrCurve: 0
    - serializedVersion: 2
      path: 3742105976
      attribute: 304273561
      script: {fileID: 708705254, guid: f70555f144d8491a825f0804e09c671c, type: 3}
      typeID: 114
      customType: 0
      isPPtrCurve: 0
    - serializedVersion: 2
      path: 0
      attribute: 2015549526
      script: {fileID: -765806418, guid: f70555f144d8491a825f0804e09c671c, type: 3}
      typeID: 114
      customType: 0
      isPPtrCurve: 1
    - serializedVersion: 2
      path: 0
      attribute: 304273561
      script: {fileID: -765806418, guid: f70555f144d8491a825f0804e09c671c, type: 3}
      typeID: 114
      customType: 0
      isPPtrCurve: 0
    pptrCurveMapping:
    - {fileID: 21300000, guid: 69c15a52195f6264b92a7605f8d37b63, type: 3}
    - {fileID: 21300000, guid: 2504010dc98a4a54fb79289d89fc2597, type: 3}
    - {fileID: 21300000, guid: 30aa91419f35584488d22b541a5d6ead, type: 3}
    - {fileID: 21300000, guid: 6cc17981c8d95f545b4accbf23e182cd, type: 3}
    - {fileID: 21300000, guid: 311bb3f4c0adcda4686d4e70ea7a3f6e, type: 3}
    - {fileID: 21300000, guid: fcbf6190f9ba7944ab6389b1bb2b90a7, type: 3}
    - {fileID: 21300000, guid: b5025b233c4b46f4a93c6a1e6a5a6fe0, type: 3}
    - {fileID: 21300000, guid: 9229fa5f75087234e9fb3c6092236aea, type: 3}
    - {fileID: 21300000, guid: 231914e87ad07e241a1aa7b82c518758, type: 3}
    - {fileID: 21300000, guid: 69c15a52195f6264b92a7605f8d37b63, type: 3}
  m_AnimationClipSettings:
    serializedVersion: 2
    m_AdditiveReferencePoseClip: {fileID: 0}
    m_AdditiveReferencePoseTime: 0
    m_StartTime: 0
    m_StopTime: 1.05
    m_OrientationOffsetY: 0
    m_Level: 0
    m_CycleOffset: 0
    m_HasAdditiveReferencePose: 0
    m_LoopTime: 1
    m_LoopBlend: 0
    m_LoopBlendOrientation: 0
    m_LoopBlendPositionY: 0
    m_LoopBlendPositionXZ: 0
    m_KeepOriginalOrientation: 0
    m_KeepOriginalPositionY: 1
    m_KeepOriginalPositionXZ: 0
    m_HeightFromFeet: 0
    m_Mirror: 0
  m_EditorCurves:
  - curve:
      serializedVersion: 2
      m_Curve:
      - serializedVersion: 3
        time: 0
        value: 1110
        inSlope: -21.071499
        outSlope: -546.22894
        tangentMode: 1
        weightedMode: 0
        inWeight: 1
        outWeight: 1
      - serializedVersion: 3
        time: 0.9166667
        value: 600
        inSlope: -550.7437
        outSlope: 4404.5923
        tangentMode: 1
        weightedMode: 0
        inWeight: 1
        outWeight: 1
      - serializedVersion: 3
        time: 1.0333333
        value: 1110
        inSlope: 4251.1177
        outSlope: -546.90283
        tangentMode: 1
        weightedMode: 0
        inWeight: 1
        outWeight: 1
      m_PreInfinity: 2
      m_PostInfinity: 2
      m_RotationOrder: 4
    attribute: m_AnchoredPosition.x
    path: Image/Text
    classID: 224
    script: {fileID: 0}
  - curve:
      serializedVersion: 2
      m_Curve:
      - serializedVersion: 3
        time: 0
        value: 0.1
        inSlope: Infinity
        outSlope: Infinity
        tangentMode: 0
        weightedMode: 0
        inWeight: 0
        outWeight: 0.33333334
      - serializedVersion: 3
        time: 0.11666667
        value: 0.3
        inSlope: Infinity
        outSlope: Infinity
        tangentMode: 0
        weightedMode: 0
        inWeight: 0
        outWeight: 0.33333334
      - serializedVersion: 3
        time: 0.23333333
        value: 0.45
        inSlope: Infinity
        outSlope: Infinity
        tangentMode: 0
        weightedMode: 0
        inWeight: 0
        outWeight: 0.33333334
      - serializedVersion: 3
        time: 0.35
        value: 0.6
        inSlope: Infinity
        outSlope: Infinity
        tangentMode: 0
        weightedMode: 0
        inWeight: 0
        outWeight: 0.33333334
      - serializedVersion: 3
        time: 0.46666667
        value: 0.7
        inSlope: Infinity
        outSlope: Infinity
        tangentMode: 0
        weightedMode: 0
        inWeight: 0
        outWeight: 0.33333334
      - serializedVersion: 3
        time: 0.56666666
        value: 0.6
        inSlope: Infinity
        outSlope: Infinity
        tangentMode: 0
        weightedMode: 0
        inWeight: 0.33333334
        outWeight: 0
      - serializedVersion: 3
        time: 0.68333334
        value: 0.45
        inSlope: Infinity
        outSlope: Infinity
        tangentMode: 0
        weightedMode: 0
        inWeight: 0.33333334
        outWeight: 0
      - serializedVersion: 3
        time: 0.8
        value: 0.2
        inSlope: Infinity
        outSlope: Infinity
        tangentMode: 0
        weightedMode: 0
        inWeight: 0.33333334
        outWeight: 0
      - serializedVersion: 3
        time: 0.9166667
        value: 0
        inSlope: Infinity
        outSlope: Infinity
        tangentMode: 0
        weightedMode: 0
        inWeight: 0
        outWeight: 0.33333334
      - serializedVersion: 3
        time: 1.0333333
        value: 0.1
        inSlope: Infinity
        outSlope: Infinity
        tangentMode: 0
        weightedMode: 0
        inWeight: 0
        outWeight: 0.33333334
      m_PreInfinity: 2
      m_PostInfinity: 2
      m_RotationOrder: 4
    attribute: m_Color.a
    path: Image/Text
    classID: 114
    script: {fileID: 708705254, guid: f70555f144d8491a825f0804e09c671c, type: 3}
  - curve:
      serializedVersion: 2
      m_Curve:
      - serializedVersion: 3
        time: 0
        value: 1
        inSlope: 0
        outSlope: 0
        tangentMode: 136
        weightedMode: 0
        inWeight: 0
        outWeight: 0
      m_PreInfinity: 2
      m_PostInfinity: 2
      m_RotationOrder: 4
    attribute: m_Color.a
    path: 
    classID: 114
    script: {fileID: -765806418, guid: f70555f144d8491a825f0804e09c671c, type: 3}
  m_EulerEditorCurves: []
  m_HasGenericRootTransform: 0
  m_HasMotionFloatCurves: 0
  m_Events: []
